<svg width="32" height="32" viewBox="0 0 32 32" fill="none" xmlns="http://www.w3.org/2000/svg">
  <rect x="1" y="1" width="30" height="30" rx="15" stroke="#7D7D7D" stroke-width="2"/>
  <rect x="12" y="9" width="2" height="14" rx="1" fill="#7D7D7D"/>
  <rect x="18" y="9" width="2" height="14" rx="1" fill="#7D7D7D"/>
</svg>
